,weight,coffee_name,batch,roasting_date,roaster,aroma_1,aroma_2,aroma_3,country,region,height_min,height_max,species,variety,process,decaf,scale_id,contributor_orcid,measurement_date,bag_total_weight,bag_remaining_weight
0,0.136,El Mirador,0,2021-08-03,Neues Schwarz,Blood Orange,Honeydew,Caramel,Guatemala,Huehuetenango,1550,1620,Arabica,"Caturra, Catuai, Bourbon",Washed,False,ffe5303f-434a-4947-a653-d86ca7c58b82,0000-0002-5345-7122,2021-08-20,250,62.09
1,0.136,El Mirador,0,2021-08-03,Neues Schwarz,Blood Orange,Honeydew,Caramel,Guatemala,Huehuetenango,1550,1620,Arabica,"Caturra, Catuai, Bourbon",Washed,False,ffe5303f-434a-4947-a653-d86ca7c58b82,0000-0002-5345-7122,2021-08-20,250,62.09
2,0.140,El Mirador,0,2021-08-03,Neues Schwarz,Blood Orange,Honeydew,Caramel,Guatemala,Huehuetenango,1550,1620,Arabica,"Caturra, Catuai, Bourbon",Washed,False,ffe5303f-434a-4947-a653-d86ca7c58b82,0000-0002-5345-7122,2021-08-20,250,62.09
3,0.143,El Mirador,0,2021-08-03,Neues Schwarz,Blood Orange,Honeydew,Caramel,Guatemala,Huehuetenango,1550,1620,Arabica,"Caturra, Catuai, Bourbon",Washed,False,ffe5303f-434a-4947-a653-d86ca7c58b82,0000-0002-5345-7122,2021-08-20,250,62.09
4,0.141,El Mirador,0,2021-08-03,Neues Schwarz,Blood Orange,Honeydew,Caramel,Guatemala,Huehuetenango,1550,1620,Arabica,"Caturra, Catuai, Bourbon",Washed,False,ffe5303f-434a-4947-a653-d86ca7c58b82,0000-0002-5345-7122,2021-08-20,250,62.09
5,0.143,El Mirador,0,2021-08-03,Neues Schwarz,Blood Orange,Honeydew,Caramel,Guatemala,Huehuetenango,1550,1620,Arabica,"Caturra, Catuai, Bourbon",Washed,False,ffe5303f-434a-4947-a653-d86ca7c58b82,0000-0002-5345-7122,2021-08-20,250,62.09
6,0.135,El Mirador,0,2021-08-03,Neues Schwarz,Blood Orange,Honeydew,Caramel,Guatemala,Huehuetenango,1550,1620,Arabica,"Caturra, Catuai, Bourbon",Washed,False,ffe5303f-434a-4947-a653-d86ca7c58b82,0000-0002-5345-7122,2021-08-20,250,62.09
7,0.136,El Mirador,0,2021-08-03,Neues Schwarz,Blood Orange,Honeydew,Caramel,Guatemala,Huehuetenango,1550,1620,Arabica,"Caturra, Catuai, Bourbon",Washed,False,ffe5303f-434a-4947-a653-d86ca7c58b82,0000-0002-5345-7122,2021-08-20,250,62.09
8,0.149,El Mirador,0,2021-08-03,Neues Schwarz,Blood Orange,Honeydew,Caramel,Guatemala,Huehuetenango,1550,1620,Arabica,"Caturra, Catuai, Bourbon",Washed,False,ffe5303f-434a-4947-a653-d86ca7c58b82,0000-0002-5345-7122,2021-08-20,250,62.09
9,0.136,El Mirador,0,2021-08-03,Neues Schwarz,Blood Orange,Honeydew,Caramel,Guatemala,Huehuetenango,1550,1620,Arabica,"Caturra, Catuai, Bourbon",Washed,False,ffe5303f-434a-4947-a653-d86ca7c58b82,0000-0002-5345-7122,2021-08-20,250,62.09
10,0.138,El Mirador,0,2021-08-03,Neues Schwarz,Blood Orange,Honeydew,Caramel,Guatemala,Huehuetenango,1550,1620,Arabica,"Caturra, Catuai, Bourbon",Washed,False,ffe5303f-434a-4947-a653-d86ca7c58b82,0000-0002-5345-7122,2021-08-20,250,62.09
11,0.135,El Mirador,0,2021-08-03,Neues Schwarz,Blood Orange,Honeydew,Caramel,Guatemala,Huehuetenango,1550,1620,Arabica,"Caturra, Catuai, Bourbon",Washed,False,ffe5303f-434a-4947-a653-d86ca7c58b82,0000-0002-5345-7122,2021-08-20,250,62.09
12,0.133,El Mirador,0,2021-08-03,Neues Schwarz,Blood Orange,Honeydew,Caramel,Guatemala,Huehuetenango,1550,1620,Arabica,"Caturra, Catuai, Bourbon",Washed,False,ffe5303f-434a-4947-a653-d86ca7c58b82,0000-0002-5345-7122,2021-08-20,250,62.09
13,0.155,El Mirador,0,2021-08-03,Neues Schwarz,Blood Orange,Honeydew,Caramel,Guatemala,Huehuetenango,1550,1620,Arabica,"Caturra, Catuai, Bourbon",Washed,False,ffe5303f-434a-4947-a653-d86ca7c58b82,0000-0002-5345-7122,2021-08-20,250,62.09
14,0.132,El Mirador,0,2021-08-03,Neues Schwarz,Blood Orange,Honeydew,Caramel,Guatemala,Huehuetenango,1550,1620,Arabica,"Caturra, Catuai, Bourbon",Washed,False,ffe5303f-434a-4947-a653-d86ca7c58b82,0000-0002-5345-7122,2021-08-20,250,62.09
15,0.147,El Mirador,0,2021-08-03,Neues Schwarz,Blood Orange,Honeydew,Caramel,Guatemala,Huehuetenango,1550,1620,Arabica,"Caturra, Catuai, Bourbon",Washed,False,ffe5303f-434a-4947-a653-d86ca7c58b82,0000-0002-5345-7122,2021-08-20,250,62.09
16,0.148,El Mirador,0,2021-08-03,Neues Schwarz,Blood Orange,Honeydew,Caramel,Guatemala,Huehuetenango,1550,1620,Arabica,"Caturra, Catuai, Bourbon",Washed,False,ffe5303f-434a-4947-a653-d86ca7c58b82,0000-0002-5345-7122,2021-08-20,250,62.09
17,0.129,El Mirador,0,2021-08-03,Neues Schwarz,Blood Orange,Honeydew,Caramel,Guatemala,Huehuetenango,1550,1620,Arabica,"Caturra, Catuai, Bourbon",Washed,False,ffe5303f-434a-4947-a653-d86ca7c58b82,0000-0002-5345-7122,2021-08-20,250,62.09
18,0.135,El Mirador,0,2021-08-03,Neues Schwarz,Blood Orange,Honeydew,Caramel,Guatemala,Huehuetenango,1550,1620,Arabica,"Caturra, Catuai, Bourbon",Washed,False,ffe5303f-434a-4947-a653-d86ca7c58b82,0000-0002-5345-7122,2021-08-20,250,62.09
19,0.155,El Mirador,0,2021-08-03,Neues Schwarz,Blood Orange,Honeydew,Caramel,Guatemala,Huehuetenango,1550,1620,Arabica,"Caturra, Catuai, Bourbon",Washed,False,ffe5303f-434a-4947-a653-d86ca7c58b82,0000-0002-5345-7122,2021-08-20,250,62.09
20,0.145,El Mirador,0,2021-08-03,Neues Schwarz,Blood Orange,Honeydew,Caramel,Guatemala,Huehuetenango,1550,1620,Arabica,"Caturra, Catuai, Bourbon",Washed,False,ffe5303f-434a-4947-a653-d86ca7c58b82,0000-0002-5345-7122,2021-08-20,250,62.09
21,0.148,El Mirador,0,2021-08-03,Neues Schwarz,Blood Orange,Honeydew,Caramel,Guatemala,Huehuetenango,1550,1620,Arabica,"Caturra, Catuai, Bourbon",Washed,False,ffe5303f-434a-4947-a653-d86ca7c58b82,0000-0002-5345-7122,2021-08-20,250,62.09
22,0.146,El Mirador,0,2021-08-03,Neues Schwarz,Blood Orange,Honeydew,Caramel,Guatemala,Huehuetenango,1550,1620,Arabica,"Caturra, Catuai, Bourbon",Washed,False,ffe5303f-434a-4947-a653-d86ca7c58b82,0000-0002-5345-7122,2021-08-20,250,62.09
23,0.151,El Mirador,0,2021-08-03,Neues Schwarz,Blood Orange,Honeydew,Caramel,Guatemala,Huehuetenango,1550,1620,Arabica,"Caturra, Catuai, Bourbon",Washed,False,ffe5303f-434a-4947-a653-d86ca7c58b82,0000-0002-5345-7122,2021-08-20,250,62.09
24,0.136,El Mirador,0,2021-08-03,Neues Schwarz,Blood Orange,Honeydew,Caramel,Guatemala,Huehuetenango,1550,1620,Arabica,"Caturra, Catuai, Bourbon",Washed,False,ffe5303f-434a-4947-a653-d86ca7c58b82,0000-0002-5345-7122,2021-08-20,250,62.09
25,0.145,El Mirador,0,2021-08-03,Neues Schwarz,Blood Orange,Honeydew,Caramel,Guatemala,Huehuetenango,1550,1620,Arabica,"Caturra, Catuai, Bourbon",Washed,False,ffe5303f-434a-4947-a653-d86ca7c58b82,0000-0002-5345-7122,2021-08-20,250,62.09
26,0.134,El Mirador,0,2021-08-03,Neues Schwarz,Blood Orange,Honeydew,Caramel,Guatemala,Huehuetenango,1550,1620,Arabica,"Caturra, Catuai, Bourbon",Washed,False,ffe5303f-434a-4947-a653-d86ca7c58b82,0000-0002-5345-7122,2021-08-20,250,62.09
27,0.139,El Mirador,0,2021-08-03,Neues Schwarz,Blood Orange,Honeydew,Caramel,Guatemala,Huehuetenango,1550,1620,Arabica,"Caturra, Catuai, Bourbon",Washed,False,ffe5303f-434a-4947-a653-d86ca7c58b82,0000-0002-5345-7122,2021-08-20,250,62.09
28,0.136,El Mirador,0,2021-08-03,Neues Schwarz,Blood Orange,Honeydew,Caramel,Guatemala,Huehuetenango,1550,1620,Arabica,"Caturra, Catuai, Bourbon",Washed,False,ffe5303f-434a-4947-a653-d86ca7c58b82,0000-0002-5345-7122,2021-08-20,250,62.09
29,0.134,El Mirador,0,2021-08-03,Neues Schwarz,Blood Orange,Honeydew,Caramel,Guatemala,Huehuetenango,1550,1620,Arabica,"Caturra, Catuai, Bourbon",Washed,False,ffe5303f-434a-4947-a653-d86ca7c58b82,0000-0002-5345-7122,2021-08-20,250,62.09
30,0.151,El Mirador,0,2021-08-03,Neues Schwarz,Blood Orange,Honeydew,Caramel,Guatemala,Huehuetenango,1550,1620,Arabica,"Caturra, Catuai, Bourbon",Washed,False,ffe5303f-434a-4947-a653-d86ca7c58b82,0000-0002-5345-7122,2021-08-20,250,62.09
31,0.140,El Mirador,0,2021-08-03,Neues Schwarz,Blood Orange,Honeydew,Caramel,Guatemala,Huehuetenango,1550,1620,Arabica,"Caturra, Catuai, Bourbon",Washed,False,ffe5303f-434a-4947-a653-d86ca7c58b82,0000-0002-5345-7122,2021-08-20,250,62.09
32,0.143,El Mirador,0,2021-08-03,Neues Schwarz,Blood Orange,Honeydew,Caramel,Guatemala,Huehuetenango,1550,1620,Arabica,"Caturra, Catuai, Bourbon",Washed,False,ffe5303f-434a-4947-a653-d86ca7c58b82,0000-0002-5345-7122,2021-08-20,250,62.09
33,0.131,El Mirador,0,2021-08-03,Neues Schwarz,Blood Orange,Honeydew,Caramel,Guatemala,Huehuetenango,1550,1620,Arabica,"Caturra, Catuai, Bourbon",Washed,False,ffe5303f-434a-4947-a653-d86ca7c58b82,0000-0002-5345-7122,2021-08-20,250,62.09
34,0.114,El Mirador,0,2021-08-03,Neues Schwarz,Blood Orange,Honeydew,Caramel,Guatemala,Huehuetenango,1550,1620,Arabica,"Caturra, Catuai, Bourbon",Washed,False,ffe5303f-434a-4947-a653-d86ca7c58b82,0000-0002-5345-7122,2021-08-20,250,62.09
35,0.138,El Mirador,0,2021-08-03,Neues Schwarz,Blood Orange,Honeydew,Caramel,Guatemala,Huehuetenango,1550,1620,Arabica,"Caturra, Catuai, Bourbon",Washed,False,ffe5303f-434a-4947-a653-d86ca7c58b82,0000-0002-5345-7122,2021-08-20,250,62.09
36,0.139,El Mirador,0,2021-08-03,Neues Schwarz,Blood Orange,Honeydew,Caramel,Guatemala,Huehuetenango,1550,1620,Arabica,"Caturra, Catuai, Bourbon",Washed,False,ffe5303f-434a-4947-a653-d86ca7c58b82,0000-0002-5345-7122,2021-08-20,250,62.09
37,0.133,El Mirador,0,2021-08-03,Neues Schwarz,Blood Orange,Honeydew,Caramel,Guatemala,Huehuetenango,1550,1620,Arabica,"Caturra, Catuai, Bourbon",Washed,False,ffe5303f-434a-4947-a653-d86ca7c58b82,0000-0002-5345-7122,2021-08-20,250,62.09
38,0.137,El Mirador,0,2021-08-03,Neues Schwarz,Blood Orange,Honeydew,Caramel,Guatemala,Huehuetenango,1550,1620,Arabica,"Caturra, Catuai, Bourbon",Washed,False,ffe5303f-434a-4947-a653-d86ca7c58b82,0000-0002-5345-7122,2021-08-20,250,62.09
39,0.131,El Mirador,0,2021-08-03,Neues Schwarz,Blood Orange,Honeydew,Caramel,Guatemala,Huehuetenango,1550,1620,Arabica,"Caturra, Catuai, Bourbon",Washed,False,ffe5303f-434a-4947-a653-d86ca7c58b82,0000-0002-5345-7122,2021-08-20,250,62.09
40,0.138,El Mirador,0,2021-08-03,Neues Schwarz,Blood Orange,Honeydew,Caramel,Guatemala,Huehuetenango,1550,1620,Arabica,"Caturra, Catuai, Bourbon",Washed,False,ffe5303f-434a-4947-a653-d86ca7c58b82,0000-0002-5345-7122,2021-08-20,250,62.09
41,0.133,El Mirador,0,2021-08-03,Neues Schwarz,Blood Orange,Honeydew,Caramel,Guatemala,Huehuetenango,1550,1620,Arabica,"Caturra, Catuai, Bourbon",Washed,False,ffe5303f-434a-4947-a653-d86ca7c58b82,0000-0002-5345-7122,2021-08-20,250,62.09
42,0.133,El Mirador,0,2021-08-03,Neues Schwarz,Blood Orange,Honeydew,Caramel,Guatemala,Huehuetenango,1550,1620,Arabica,"Caturra, Catuai, Bourbon",Washed,False,ffe5303f-434a-4947-a653-d86ca7c58b82,0000-0002-5345-7122,2021-08-20,250,62.09
43,0.140,El Mirador,0,2021-08-03,Neues Schwarz,Blood Orange,Honeydew,Caramel,Guatemala,Huehuetenango,1550,1620,Arabica,"Caturra, Catuai, Bourbon",Washed,False,ffe5303f-434a-4947-a653-d86ca7c58b82,0000-0002-5345-7122,2021-08-20,250,62.09
44,0.147,El Mirador,0,2021-08-03,Neues Schwarz,Blood Orange,Honeydew,Caramel,Guatemala,Huehuetenango,1550,1620,Arabica,"Caturra, Catuai, Bourbon",Washed,False,ffe5303f-434a-4947-a653-d86ca7c58b82,0000-0002-5345-7122,2021-08-20,250,62.09
45,0.140,El Mirador,0,2021-08-03,Neues Schwarz,Blood Orange,Honeydew,Caramel,Guatemala,Huehuetenango,1550,1620,Arabica,"Caturra, Catuai, Bourbon",Washed,False,ffe5303f-434a-4947-a653-d86ca7c58b82,0000-0002-5345-7122,2021-08-20,250,62.09
46,0.144,El Mirador,0,2021-08-03,Neues Schwarz,Blood Orange,Honeydew,Caramel,Guatemala,Huehuetenango,1550,1620,Arabica,"Caturra, Catuai, Bourbon",Washed,False,ffe5303f-434a-4947-a653-d86ca7c58b82,0000-0002-5345-7122,2021-08-20,250,62.09
47,0.146,El Mirador,0,2021-08-03,Neues Schwarz,Blood Orange,Honeydew,Caramel,Guatemala,Huehuetenango,1550,1620,Arabica,"Caturra, Catuai, Bourbon",Washed,False,ffe5303f-434a-4947-a653-d86ca7c58b82,0000-0002-5345-7122,2021-08-20,250,62.09
48,0.136,El Mirador,0,2021-08-03,Neues Schwarz,Blood Orange,Honeydew,Caramel,Guatemala,Huehuetenango,1550,1620,Arabica,"Caturra, Catuai, Bourbon",Washed,False,ffe5303f-434a-4947-a653-d86ca7c58b82,0000-0002-5345-7122,2021-08-20,250,62.09
49,0.135,El Mirador,0,2021-08-03,Neues Schwarz,Blood Orange,Honeydew,Caramel,Guatemala,Huehuetenango,1550,1620,Arabica,"Caturra, Catuai, Bourbon",Washed,False,ffe5303f-434a-4947-a653-d86ca7c58b82,0000-0002-5345-7122,2021-08-20,250,62.09
