,weight,coffee_name,batch,roasting_date,roaster,aroma_1,aroma_2,aroma_3,country,region,height_min,height_max,species,variety,process,decaf,scale_id,contributor_orcid,measurement_date,bag_total_weight,bag_remaining_weight
0,0.151,La Portada,0,2021-06-29,röst.art,Chocolate,Rosehip,Mango,Colombia,Huila,1780,1780,Arabica,Pink Bourbon,"Fermented, Natural",False,ffe5303f-434a-4947-a653-d86ca7c58b82,0000-0002-5345-7122,2021-07-12,500,235.68
1,0.160,La Portada,0,2021-06-29,röst.art,Chocolate,Rosehip,Mango,Colombia,Huila,1780,1780,Arabica,Pink Bourbon,"Fermented, Natural",False,ffe5303f-434a-4947-a653-d86ca7c58b82,0000-0002-5345-7122,2021-07-12,500,235.68
2,0.163,La Portada,0,2021-06-29,röst.art,Chocolate,Rosehip,Mango,Colombia,Huila,1780,1780,Arabica,Pink Bourbon,"Fermented, Natural",False,ffe5303f-434a-4947-a653-d86ca7c58b82,0000-0002-5345-7122,2021-07-12,500,235.68
3,0.148,La Portada,0,2021-06-29,röst.art,Chocolate,Rosehip,Mango,Colombia,Huila,1780,1780,Arabica,Pink Bourbon,"Fermented, Natural",False,ffe5303f-434a-4947-a653-d86ca7c58b82,0000-0002-5345-7122,2021-07-12,500,235.68
4,0.160,La Portada,0,2021-06-29,röst.art,Chocolate,Rosehip,Mango,Colombia,Huila,1780,1780,Arabica,Pink Bourbon,"Fermented, Natural",False,ffe5303f-434a-4947-a653-d86ca7c58b82,0000-0002-5345-7122,2021-07-12,500,235.68
5,0.174,La Portada,0,2021-06-29,röst.art,Chocolate,Rosehip,Mango,Colombia,Huila,1780,1780,Arabica,Pink Bourbon,"Fermented, Natural",False,ffe5303f-434a-4947-a653-d86ca7c58b82,0000-0002-5345-7122,2021-07-12,500,235.68
6,0.166,La Portada,0,2021-06-29,röst.art,Chocolate,Rosehip,Mango,Colombia,Huila,1780,1780,Arabica,Pink Bourbon,"Fermented, Natural",False,ffe5303f-434a-4947-a653-d86ca7c58b82,0000-0002-5345-7122,2021-07-12,500,235.68
7,0.166,La Portada,0,2021-06-29,röst.art,Chocolate,Rosehip,Mango,Colombia,Huila,1780,1780,Arabica,Pink Bourbon,"Fermented, Natural",False,ffe5303f-434a-4947-a653-d86ca7c58b82,0000-0002-5345-7122,2021-07-12,500,235.68
8,0.161,La Portada,0,2021-06-29,röst.art,Chocolate,Rosehip,Mango,Colombia,Huila,1780,1780,Arabica,Pink Bourbon,"Fermented, Natural",False,ffe5303f-434a-4947-a653-d86ca7c58b82,0000-0002-5345-7122,2021-07-12,500,235.68
9,0.156,La Portada,0,2021-06-29,röst.art,Chocolate,Rosehip,Mango,Colombia,Huila,1780,1780,Arabica,Pink Bourbon,"Fermented, Natural",False,ffe5303f-434a-4947-a653-d86ca7c58b82,0000-0002-5345-7122,2021-07-12,500,235.68
10,0.156,La Portada,0,2021-06-29,röst.art,Chocolate,Rosehip,Mango,Colombia,Huila,1780,1780,Arabica,Pink Bourbon,"Fermented, Natural",False,ffe5303f-434a-4947-a653-d86ca7c58b82,0000-0002-5345-7122,2021-07-12,500,235.68
11,0.165,La Portada,0,2021-06-29,röst.art,Chocolate,Rosehip,Mango,Colombia,Huila,1780,1780,Arabica,Pink Bourbon,"Fermented, Natural",False,ffe5303f-434a-4947-a653-d86ca7c58b82,0000-0002-5345-7122,2021-07-12,500,235.68
12,0.162,La Portada,0,2021-06-29,röst.art,Chocolate,Rosehip,Mango,Colombia,Huila,1780,1780,Arabica,Pink Bourbon,"Fermented, Natural",False,ffe5303f-434a-4947-a653-d86ca7c58b82,0000-0002-5345-7122,2021-07-12,500,235.68
13,0.160,La Portada,0,2021-06-29,röst.art,Chocolate,Rosehip,Mango,Colombia,Huila,1780,1780,Arabica,Pink Bourbon,"Fermented, Natural",False,ffe5303f-434a-4947-a653-d86ca7c58b82,0000-0002-5345-7122,2021-07-12,500,235.68
14,0.175,La Portada,0,2021-06-29,röst.art,Chocolate,Rosehip,Mango,Colombia,Huila,1780,1780,Arabica,Pink Bourbon,"Fermented, Natural",False,ffe5303f-434a-4947-a653-d86ca7c58b82,0000-0002-5345-7122,2021-07-12,500,235.68
15,0.141,La Portada,0,2021-06-29,röst.art,Chocolate,Rosehip,Mango,Colombia,Huila,1780,1780,Arabica,Pink Bourbon,"Fermented, Natural",False,ffe5303f-434a-4947-a653-d86ca7c58b82,0000-0002-5345-7122,2021-07-12,500,235.68
16,0.154,La Portada,0,2021-06-29,röst.art,Chocolate,Rosehip,Mango,Colombia,Huila,1780,1780,Arabica,Pink Bourbon,"Fermented, Natural",False,ffe5303f-434a-4947-a653-d86ca7c58b82,0000-0002-5345-7122,2021-07-12,500,235.68
17,0.163,La Portada,0,2021-06-29,röst.art,Chocolate,Rosehip,Mango,Colombia,Huila,1780,1780,Arabica,Pink Bourbon,"Fermented, Natural",False,ffe5303f-434a-4947-a653-d86ca7c58b82,0000-0002-5345-7122,2021-07-12,500,235.68
18,0.143,La Portada,0,2021-06-29,röst.art,Chocolate,Rosehip,Mango,Colombia,Huila,1780,1780,Arabica,Pink Bourbon,"Fermented, Natural",False,ffe5303f-434a-4947-a653-d86ca7c58b82,0000-0002-5345-7122,2021-07-12,500,235.68
19,0.161,La Portada,0,2021-06-29,röst.art,Chocolate,Rosehip,Mango,Colombia,Huila,1780,1780,Arabica,Pink Bourbon,"Fermented, Natural",False,ffe5303f-434a-4947-a653-d86ca7c58b82,0000-0002-5345-7122,2021-07-12,500,235.68
20,0.189,La Portada,0,2021-06-29,röst.art,Chocolate,Rosehip,Mango,Colombia,Huila,1780,1780,Arabica,Pink Bourbon,"Fermented, Natural",False,ffe5303f-434a-4947-a653-d86ca7c58b82,0000-0002-5345-7122,2021-07-12,500,235.68
21,0.153,La Portada,0,2021-06-29,röst.art,Chocolate,Rosehip,Mango,Colombia,Huila,1780,1780,Arabica,Pink Bourbon,"Fermented, Natural",False,ffe5303f-434a-4947-a653-d86ca7c58b82,0000-0002-5345-7122,2021-07-12,500,235.68
22,0.160,La Portada,0,2021-06-29,röst.art,Chocolate,Rosehip,Mango,Colombia,Huila,1780,1780,Arabica,Pink Bourbon,"Fermented, Natural",False,ffe5303f-434a-4947-a653-d86ca7c58b82,0000-0002-5345-7122,2021-07-12,500,235.68
23,0.145,La Portada,0,2021-06-29,röst.art,Chocolate,Rosehip,Mango,Colombia,Huila,1780,1780,Arabica,Pink Bourbon,"Fermented, Natural",False,ffe5303f-434a-4947-a653-d86ca7c58b82,0000-0002-5345-7122,2021-07-12,500,235.68
24,0.163,La Portada,0,2021-06-29,röst.art,Chocolate,Rosehip,Mango,Colombia,Huila,1780,1780,Arabica,Pink Bourbon,"Fermented, Natural",False,ffe5303f-434a-4947-a653-d86ca7c58b82,0000-0002-5345-7122,2021-07-12,500,235.68
25,0.154,La Portada,0,2021-06-29,röst.art,Chocolate,Rosehip,Mango,Colombia,Huila,1780,1780,Arabica,Pink Bourbon,"Fermented, Natural",False,ffe5303f-434a-4947-a653-d86ca7c58b82,0000-0002-5345-7122,2021-07-12,500,235.68
26,0.163,La Portada,0,2021-06-29,röst.art,Chocolate,Rosehip,Mango,Colombia,Huila,1780,1780,Arabica,Pink Bourbon,"Fermented, Natural",False,ffe5303f-434a-4947-a653-d86ca7c58b82,0000-0002-5345-7122,2021-07-12,500,235.68
27,0.160,La Portada,0,2021-06-29,röst.art,Chocolate,Rosehip,Mango,Colombia,Huila,1780,1780,Arabica,Pink Bourbon,"Fermented, Natural",False,ffe5303f-434a-4947-a653-d86ca7c58b82,0000-0002-5345-7122,2021-07-12,500,235.68
28,0.145,La Portada,0,2021-06-29,röst.art,Chocolate,Rosehip,Mango,Colombia,Huila,1780,1780,Arabica,Pink Bourbon,"Fermented, Natural",False,ffe5303f-434a-4947-a653-d86ca7c58b82,0000-0002-5345-7122,2021-07-12,500,235.68
29,0.151,La Portada,0,2021-06-29,röst.art,Chocolate,Rosehip,Mango,Colombia,Huila,1780,1780,Arabica,Pink Bourbon,"Fermented, Natural",False,ffe5303f-434a-4947-a653-d86ca7c58b82,0000-0002-5345-7122,2021-07-12,500,235.68
30,0.151,La Portada,0,2021-06-29,röst.art,Chocolate,Rosehip,Mango,Colombia,Huila,1780,1780,Arabica,Pink Bourbon,"Fermented, Natural",False,ffe5303f-434a-4947-a653-d86ca7c58b82,0000-0002-5345-7122,2021-07-12,500,235.68
31,0.155,La Portada,0,2021-06-29,röst.art,Chocolate,Rosehip,Mango,Colombia,Huila,1780,1780,Arabica,Pink Bourbon,"Fermented, Natural",False,ffe5303f-434a-4947-a653-d86ca7c58b82,0000-0002-5345-7122,2021-07-12,500,235.68
32,0.161,La Portada,0,2021-06-29,röst.art,Chocolate,Rosehip,Mango,Colombia,Huila,1780,1780,Arabica,Pink Bourbon,"Fermented, Natural",False,ffe5303f-434a-4947-a653-d86ca7c58b82,0000-0002-5345-7122,2021-07-12,500,235.68
33,0.154,La Portada,0,2021-06-29,röst.art,Chocolate,Rosehip,Mango,Colombia,Huila,1780,1780,Arabica,Pink Bourbon,"Fermented, Natural",False,ffe5303f-434a-4947-a653-d86ca7c58b82,0000-0002-5345-7122,2021-07-12,500,235.68
34,0.167,La Portada,0,2021-06-29,röst.art,Chocolate,Rosehip,Mango,Colombia,Huila,1780,1780,Arabica,Pink Bourbon,"Fermented, Natural",False,ffe5303f-434a-4947-a653-d86ca7c58b82,0000-0002-5345-7122,2021-07-12,500,235.68
35,0.155,La Portada,0,2021-06-29,röst.art,Chocolate,Rosehip,Mango,Colombia,Huila,1780,1780,Arabica,Pink Bourbon,"Fermented, Natural",False,ffe5303f-434a-4947-a653-d86ca7c58b82,0000-0002-5345-7122,2021-07-12,500,235.68
36,0.153,La Portada,0,2021-06-29,röst.art,Chocolate,Rosehip,Mango,Colombia,Huila,1780,1780,Arabica,Pink Bourbon,"Fermented, Natural",False,ffe5303f-434a-4947-a653-d86ca7c58b82,0000-0002-5345-7122,2021-07-12,500,235.68
37,0.162,La Portada,0,2021-06-29,röst.art,Chocolate,Rosehip,Mango,Colombia,Huila,1780,1780,Arabica,Pink Bourbon,"Fermented, Natural",False,ffe5303f-434a-4947-a653-d86ca7c58b82,0000-0002-5345-7122,2021-07-12,500,235.68
38,0.164,La Portada,0,2021-06-29,röst.art,Chocolate,Rosehip,Mango,Colombia,Huila,1780,1780,Arabica,Pink Bourbon,"Fermented, Natural",False,ffe5303f-434a-4947-a653-d86ca7c58b82,0000-0002-5345-7122,2021-07-12,500,235.68
39,0.165,La Portada,0,2021-06-29,röst.art,Chocolate,Rosehip,Mango,Colombia,Huila,1780,1780,Arabica,Pink Bourbon,"Fermented, Natural",False,ffe5303f-434a-4947-a653-d86ca7c58b82,0000-0002-5345-7122,2021-07-12,500,235.68
40,0.161,La Portada,0,2021-06-29,röst.art,Chocolate,Rosehip,Mango,Colombia,Huila,1780,1780,Arabica,Pink Bourbon,"Fermented, Natural",False,ffe5303f-434a-4947-a653-d86ca7c58b82,0000-0002-5345-7122,2021-07-12,500,235.68
41,0.144,La Portada,0,2021-06-29,röst.art,Chocolate,Rosehip,Mango,Colombia,Huila,1780,1780,Arabica,Pink Bourbon,"Fermented, Natural",False,ffe5303f-434a-4947-a653-d86ca7c58b82,0000-0002-5345-7122,2021-07-12,500,235.68
42,0.140,La Portada,0,2021-06-29,röst.art,Chocolate,Rosehip,Mango,Colombia,Huila,1780,1780,Arabica,Pink Bourbon,"Fermented, Natural",False,ffe5303f-434a-4947-a653-d86ca7c58b82,0000-0002-5345-7122,2021-07-12,500,235.68
43,0.158,La Portada,0,2021-06-29,röst.art,Chocolate,Rosehip,Mango,Colombia,Huila,1780,1780,Arabica,Pink Bourbon,"Fermented, Natural",False,ffe5303f-434a-4947-a653-d86ca7c58b82,0000-0002-5345-7122,2021-07-12,500,235.68
44,0.138,La Portada,0,2021-06-29,röst.art,Chocolate,Rosehip,Mango,Colombia,Huila,1780,1780,Arabica,Pink Bourbon,"Fermented, Natural",False,ffe5303f-434a-4947-a653-d86ca7c58b82,0000-0002-5345-7122,2021-07-12,500,235.68
45,0.136,La Portada,0,2021-06-29,röst.art,Chocolate,Rosehip,Mango,Colombia,Huila,1780,1780,Arabica,Pink Bourbon,"Fermented, Natural",False,ffe5303f-434a-4947-a653-d86ca7c58b82,0000-0002-5345-7122,2021-07-12,500,235.68
46,0.159,La Portada,0,2021-06-29,röst.art,Chocolate,Rosehip,Mango,Colombia,Huila,1780,1780,Arabica,Pink Bourbon,"Fermented, Natural",False,ffe5303f-434a-4947-a653-d86ca7c58b82,0000-0002-5345-7122,2021-07-12,500,235.68
47,0.154,La Portada,0,2021-06-29,röst.art,Chocolate,Rosehip,Mango,Colombia,Huila,1780,1780,Arabica,Pink Bourbon,"Fermented, Natural",False,ffe5303f-434a-4947-a653-d86ca7c58b82,0000-0002-5345-7122,2021-07-12,500,235.68
48,0.153,La Portada,0,2021-06-29,röst.art,Chocolate,Rosehip,Mango,Colombia,Huila,1780,1780,Arabica,Pink Bourbon,"Fermented, Natural",False,ffe5303f-434a-4947-a653-d86ca7c58b82,0000-0002-5345-7122,2021-07-12,500,235.68
49,0.159,La Portada,0,2021-06-29,röst.art,Chocolate,Rosehip,Mango,Colombia,Huila,1780,1780,Arabica,Pink Bourbon,"Fermented, Natural",False,ffe5303f-434a-4947-a653-d86ca7c58b82,0000-0002-5345-7122,2021-07-12,500,235.68
