,weight,coffee_name,batch,roasting_date,roaster,aroma_1,aroma_2,aroma_3,country,region,height_min,height_max,species,variety,process,decaf,scale_id,contributor_orcid,measurement_date,bag_total_weight,bag_remaining_weight
0,0.176,New Irati,0,2021-06-14,Neues Schwarz,Blackcurrant,Rosehip,Cherry,Kenia,Kirinyaga,1500,1650,Arabica,"SL-28, SL-34",Washed,False,ffe5303f-434a-4947-a653-d86ca7c58b82,0000-0002-5345-7122,2021-06-21,250,93.20
1,0.178,New Irati,0,2021-06-14,Neues Schwarz,Blackcurrant,Rosehip,Cherry,Kenia,Kirinyaga,1500,1650,Arabica,"SL-28, SL-34",Washed,False,ffe5303f-434a-4947-a653-d86ca7c58b82,0000-0002-5345-7122,2021-06-21,250,93.20
2,0.176,New Irati,0,2021-06-14,Neues Schwarz,Blackcurrant,Rosehip,Cherry,Kenia,Kirinyaga,1500,1650,Arabica,"SL-28, SL-34",Washed,False,ffe5303f-434a-4947-a653-d86ca7c58b82,0000-0002-5345-7122,2021-06-21,250,93.20
3,0.174,New Irati,0,2021-06-14,Neues Schwarz,Blackcurrant,Rosehip,Cherry,Kenia,Kirinyaga,1500,1650,Arabica,"SL-28, SL-34",Washed,False,ffe5303f-434a-4947-a653-d86ca7c58b82,0000-0002-5345-7122,2021-06-21,250,93.20
4,0.197,New Irati,0,2021-06-14,Neues Schwarz,Blackcurrant,Rosehip,Cherry,Kenia,Kirinyaga,1500,1650,Arabica,"SL-28, SL-34",Washed,False,ffe5303f-434a-4947-a653-d86ca7c58b82,0000-0002-5345-7122,2021-06-21,250,93.20
5,0.175,New Irati,0,2021-06-14,Neues Schwarz,Blackcurrant,Rosehip,Cherry,Kenia,Kirinyaga,1500,1650,Arabica,"SL-28, SL-34",Washed,False,ffe5303f-434a-4947-a653-d86ca7c58b82,0000-0002-5345-7122,2021-06-21,250,93.20
6,0.170,New Irati,0,2021-06-14,Neues Schwarz,Blackcurrant,Rosehip,Cherry,Kenia,Kirinyaga,1500,1650,Arabica,"SL-28, SL-34",Washed,False,ffe5303f-434a-4947-a653-d86ca7c58b82,0000-0002-5345-7122,2021-06-21,250,93.20
7,0.178,New Irati,0,2021-06-14,Neues Schwarz,Blackcurrant,Rosehip,Cherry,Kenia,Kirinyaga,1500,1650,Arabica,"SL-28, SL-34",Washed,False,ffe5303f-434a-4947-a653-d86ca7c58b82,0000-0002-5345-7122,2021-06-21,250,93.20
8,0.179,New Irati,0,2021-06-14,Neues Schwarz,Blackcurrant,Rosehip,Cherry,Kenia,Kirinyaga,1500,1650,Arabica,"SL-28, SL-34",Washed,False,ffe5303f-434a-4947-a653-d86ca7c58b82,0000-0002-5345-7122,2021-06-21,250,93.20
9,0.180,New Irati,0,2021-06-14,Neues Schwarz,Blackcurrant,Rosehip,Cherry,Kenia,Kirinyaga,1500,1650,Arabica,"SL-28, SL-34",Washed,False,ffe5303f-434a-4947-a653-d86ca7c58b82,0000-0002-5345-7122,2021-06-21,250,93.20
10,0.171,New Irati,0,2021-06-14,Neues Schwarz,Blackcurrant,Rosehip,Cherry,Kenia,Kirinyaga,1500,1650,Arabica,"SL-28, SL-34",Washed,False,ffe5303f-434a-4947-a653-d86ca7c58b82,0000-0002-5345-7122,2021-06-21,250,93.20
11,0.170,New Irati,0,2021-06-14,Neues Schwarz,Blackcurrant,Rosehip,Cherry,Kenia,Kirinyaga,1500,1650,Arabica,"SL-28, SL-34",Washed,False,ffe5303f-434a-4947-a653-d86ca7c58b82,0000-0002-5345-7122,2021-06-21,250,93.20
12,0.186,New Irati,0,2021-06-14,Neues Schwarz,Blackcurrant,Rosehip,Cherry,Kenia,Kirinyaga,1500,1650,Arabica,"SL-28, SL-34",Washed,False,ffe5303f-434a-4947-a653-d86ca7c58b82,0000-0002-5345-7122,2021-06-21,250,93.20
13,0.178,New Irati,0,2021-06-14,Neues Schwarz,Blackcurrant,Rosehip,Cherry,Kenia,Kirinyaga,1500,1650,Arabica,"SL-28, SL-34",Washed,False,ffe5303f-434a-4947-a653-d86ca7c58b82,0000-0002-5345-7122,2021-06-21,250,93.20
14,0.167,New Irati,0,2021-06-14,Neues Schwarz,Blackcurrant,Rosehip,Cherry,Kenia,Kirinyaga,1500,1650,Arabica,"SL-28, SL-34",Washed,False,ffe5303f-434a-4947-a653-d86ca7c58b82,0000-0002-5345-7122,2021-06-21,250,93.20
15,0.170,New Irati,0,2021-06-14,Neues Schwarz,Blackcurrant,Rosehip,Cherry,Kenia,Kirinyaga,1500,1650,Arabica,"SL-28, SL-34",Washed,False,ffe5303f-434a-4947-a653-d86ca7c58b82,0000-0002-5345-7122,2021-06-21,250,93.20
16,0.175,New Irati,0,2021-06-14,Neues Schwarz,Blackcurrant,Rosehip,Cherry,Kenia,Kirinyaga,1500,1650,Arabica,"SL-28, SL-34",Washed,False,ffe5303f-434a-4947-a653-d86ca7c58b82,0000-0002-5345-7122,2021-06-21,250,93.20
17,0.181,New Irati,0,2021-06-14,Neues Schwarz,Blackcurrant,Rosehip,Cherry,Kenia,Kirinyaga,1500,1650,Arabica,"SL-28, SL-34",Washed,False,ffe5303f-434a-4947-a653-d86ca7c58b82,0000-0002-5345-7122,2021-06-21,250,93.20
18,0.180,New Irati,0,2021-06-14,Neues Schwarz,Blackcurrant,Rosehip,Cherry,Kenia,Kirinyaga,1500,1650,Arabica,"SL-28, SL-34",Washed,False,ffe5303f-434a-4947-a653-d86ca7c58b82,0000-0002-5345-7122,2021-06-21,250,93.20
19,0.177,New Irati,0,2021-06-14,Neues Schwarz,Blackcurrant,Rosehip,Cherry,Kenia,Kirinyaga,1500,1650,Arabica,"SL-28, SL-34",Washed,False,ffe5303f-434a-4947-a653-d86ca7c58b82,0000-0002-5345-7122,2021-06-21,250,93.20
20,0.186,New Irati,0,2021-06-14,Neues Schwarz,Blackcurrant,Rosehip,Cherry,Kenia,Kirinyaga,1500,1650,Arabica,"SL-28, SL-34",Washed,False,ffe5303f-434a-4947-a653-d86ca7c58b82,0000-0002-5345-7122,2021-06-21,250,93.20
21,0.185,New Irati,0,2021-06-14,Neues Schwarz,Blackcurrant,Rosehip,Cherry,Kenia,Kirinyaga,1500,1650,Arabica,"SL-28, SL-34",Washed,False,ffe5303f-434a-4947-a653-d86ca7c58b82,0000-0002-5345-7122,2021-06-21,250,93.20
22,0.172,New Irati,0,2021-06-14,Neues Schwarz,Blackcurrant,Rosehip,Cherry,Kenia,Kirinyaga,1500,1650,Arabica,"SL-28, SL-34",Washed,False,ffe5303f-434a-4947-a653-d86ca7c58b82,0000-0002-5345-7122,2021-06-21,250,93.20
23,0.177,New Irati,0,2021-06-14,Neues Schwarz,Blackcurrant,Rosehip,Cherry,Kenia,Kirinyaga,1500,1650,Arabica,"SL-28, SL-34",Washed,False,ffe5303f-434a-4947-a653-d86ca7c58b82,0000-0002-5345-7122,2021-06-21,250,93.20
24,0.170,New Irati,0,2021-06-14,Neues Schwarz,Blackcurrant,Rosehip,Cherry,Kenia,Kirinyaga,1500,1650,Arabica,"SL-28, SL-34",Washed,False,ffe5303f-434a-4947-a653-d86ca7c58b82,0000-0002-5345-7122,2021-06-21,250,93.20
25,0.182,New Irati,0,2021-06-14,Neues Schwarz,Blackcurrant,Rosehip,Cherry,Kenia,Kirinyaga,1500,1650,Arabica,"SL-28, SL-34",Washed,False,ffe5303f-434a-4947-a653-d86ca7c58b82,0000-0002-5345-7122,2021-06-21,250,93.20
26,0.181,New Irati,0,2021-06-14,Neues Schwarz,Blackcurrant,Rosehip,Cherry,Kenia,Kirinyaga,1500,1650,Arabica,"SL-28, SL-34",Washed,False,ffe5303f-434a-4947-a653-d86ca7c58b82,0000-0002-5345-7122,2021-06-21,250,93.20
27,0.178,New Irati,0,2021-06-14,Neues Schwarz,Blackcurrant,Rosehip,Cherry,Kenia,Kirinyaga,1500,1650,Arabica,"SL-28, SL-34",Washed,False,ffe5303f-434a-4947-a653-d86ca7c58b82,0000-0002-5345-7122,2021-06-21,250,93.20
28,0.178,New Irati,0,2021-06-14,Neues Schwarz,Blackcurrant,Rosehip,Cherry,Kenia,Kirinyaga,1500,1650,Arabica,"SL-28, SL-34",Washed,False,ffe5303f-434a-4947-a653-d86ca7c58b82,0000-0002-5345-7122,2021-06-21,250,93.20
29,0.178,New Irati,0,2021-06-14,Neues Schwarz,Blackcurrant,Rosehip,Cherry,Kenia,Kirinyaga,1500,1650,Arabica,"SL-28, SL-34",Washed,False,ffe5303f-434a-4947-a653-d86ca7c58b82,0000-0002-5345-7122,2021-06-21,250,93.20
30,0.162,New Irati,0,2021-06-14,Neues Schwarz,Blackcurrant,Rosehip,Cherry,Kenia,Kirinyaga,1500,1650,Arabica,"SL-28, SL-34",Washed,False,ffe5303f-434a-4947-a653-d86ca7c58b82,0000-0002-5345-7122,2021-06-21,250,93.20
31,0.181,New Irati,0,2021-06-14,Neues Schwarz,Blackcurrant,Rosehip,Cherry,Kenia,Kirinyaga,1500,1650,Arabica,"SL-28, SL-34",Washed,False,ffe5303f-434a-4947-a653-d86ca7c58b82,0000-0002-5345-7122,2021-06-21,250,93.20
32,0.170,New Irati,0,2021-06-14,Neues Schwarz,Blackcurrant,Rosehip,Cherry,Kenia,Kirinyaga,1500,1650,Arabica,"SL-28, SL-34",Washed,False,ffe5303f-434a-4947-a653-d86ca7c58b82,0000-0002-5345-7122,2021-06-21,250,93.20
33,0.175,New Irati,0,2021-06-14,Neues Schwarz,Blackcurrant,Rosehip,Cherry,Kenia,Kirinyaga,1500,1650,Arabica,"SL-28, SL-34",Washed,False,ffe5303f-434a-4947-a653-d86ca7c58b82,0000-0002-5345-7122,2021-06-21,250,93.20
34,0.177,New Irati,0,2021-06-14,Neues Schwarz,Blackcurrant,Rosehip,Cherry,Kenia,Kirinyaga,1500,1650,Arabica,"SL-28, SL-34",Washed,False,ffe5303f-434a-4947-a653-d86ca7c58b82,0000-0002-5345-7122,2021-06-21,250,93.20
35,0.184,New Irati,0,2021-06-14,Neues Schwarz,Blackcurrant,Rosehip,Cherry,Kenia,Kirinyaga,1500,1650,Arabica,"SL-28, SL-34",Washed,False,ffe5303f-434a-4947-a653-d86ca7c58b82,0000-0002-5345-7122,2021-06-21,250,93.20
36,0.176,New Irati,0,2021-06-14,Neues Schwarz,Blackcurrant,Rosehip,Cherry,Kenia,Kirinyaga,1500,1650,Arabica,"SL-28, SL-34",Washed,False,ffe5303f-434a-4947-a653-d86ca7c58b82,0000-0002-5345-7122,2021-06-21,250,93.20
37,0.185,New Irati,0,2021-06-14,Neues Schwarz,Blackcurrant,Rosehip,Cherry,Kenia,Kirinyaga,1500,1650,Arabica,"SL-28, SL-34",Washed,False,ffe5303f-434a-4947-a653-d86ca7c58b82,0000-0002-5345-7122,2021-06-21,250,93.20
38,0.196,New Irati,0,2021-06-14,Neues Schwarz,Blackcurrant,Rosehip,Cherry,Kenia,Kirinyaga,1500,1650,Arabica,"SL-28, SL-34",Washed,False,ffe5303f-434a-4947-a653-d86ca7c58b82,0000-0002-5345-7122,2021-06-21,250,93.20
39,0.178,New Irati,0,2021-06-14,Neues Schwarz,Blackcurrant,Rosehip,Cherry,Kenia,Kirinyaga,1500,1650,Arabica,"SL-28, SL-34",Washed,False,ffe5303f-434a-4947-a653-d86ca7c58b82,0000-0002-5345-7122,2021-06-21,250,93.20
40,0.177,New Irati,0,2021-06-14,Neues Schwarz,Blackcurrant,Rosehip,Cherry,Kenia,Kirinyaga,1500,1650,Arabica,"SL-28, SL-34",Washed,False,ffe5303f-434a-4947-a653-d86ca7c58b82,0000-0002-5345-7122,2021-06-21,250,93.20
41,0.173,New Irati,0,2021-06-14,Neues Schwarz,Blackcurrant,Rosehip,Cherry,Kenia,Kirinyaga,1500,1650,Arabica,"SL-28, SL-34",Washed,False,ffe5303f-434a-4947-a653-d86ca7c58b82,0000-0002-5345-7122,2021-06-21,250,93.20
42,0.172,New Irati,0,2021-06-14,Neues Schwarz,Blackcurrant,Rosehip,Cherry,Kenia,Kirinyaga,1500,1650,Arabica,"SL-28, SL-34",Washed,False,ffe5303f-434a-4947-a653-d86ca7c58b82,0000-0002-5345-7122,2021-06-21,250,93.20
43,0.169,New Irati,0,2021-06-14,Neues Schwarz,Blackcurrant,Rosehip,Cherry,Kenia,Kirinyaga,1500,1650,Arabica,"SL-28, SL-34",Washed,False,ffe5303f-434a-4947-a653-d86ca7c58b82,0000-0002-5345-7122,2021-06-21,250,93.20
44,0.171,New Irati,0,2021-06-14,Neues Schwarz,Blackcurrant,Rosehip,Cherry,Kenia,Kirinyaga,1500,1650,Arabica,"SL-28, SL-34",Washed,False,ffe5303f-434a-4947-a653-d86ca7c58b82,0000-0002-5345-7122,2021-06-21,250,93.20
45,0.182,New Irati,0,2021-06-14,Neues Schwarz,Blackcurrant,Rosehip,Cherry,Kenia,Kirinyaga,1500,1650,Arabica,"SL-28, SL-34",Washed,False,ffe5303f-434a-4947-a653-d86ca7c58b82,0000-0002-5345-7122,2021-06-21,250,93.20
46,0.177,New Irati,0,2021-06-14,Neues Schwarz,Blackcurrant,Rosehip,Cherry,Kenia,Kirinyaga,1500,1650,Arabica,"SL-28, SL-34",Washed,False,ffe5303f-434a-4947-a653-d86ca7c58b82,0000-0002-5345-7122,2021-06-21,250,93.20
47,0.165,New Irati,0,2021-06-14,Neues Schwarz,Blackcurrant,Rosehip,Cherry,Kenia,Kirinyaga,1500,1650,Arabica,"SL-28, SL-34",Washed,False,ffe5303f-434a-4947-a653-d86ca7c58b82,0000-0002-5345-7122,2021-06-21,250,93.20
48,0.181,New Irati,0,2021-06-14,Neues Schwarz,Blackcurrant,Rosehip,Cherry,Kenia,Kirinyaga,1500,1650,Arabica,"SL-28, SL-34",Washed,False,ffe5303f-434a-4947-a653-d86ca7c58b82,0000-0002-5345-7122,2021-06-21,250,93.20
49,0.163,New Irati,0,2021-06-14,Neues Schwarz,Blackcurrant,Rosehip,Cherry,Kenia,Kirinyaga,1500,1650,Arabica,"SL-28, SL-34",Washed,False,ffe5303f-434a-4947-a653-d86ca7c58b82,0000-0002-5345-7122,2021-06-21,250,93.20
